…
An inventory of the dataset:

``` r
varlist(clinical) %>%
  print(n = 15)  # show the first 15 lines of output
#> # A tibble: 83 x 4
#>    name                               n class     label
#>    <chr>                          <dbl> <chr>     <chr>
#>  1 OTHER_PATIENT_ID                 411 character NULL 
#>  2 PATIENT_ID                       411 character NULL 
#>  3 FORM_COMPLETION_DATE             411 character NULL 
#>  4 PROSPECTIVE_COLLECTION           411 character NULL 
#>  5 RETROSPECTIVE_COLLECTION         411 character NULL 
#>  6 DAYS_TO_BIRTH                    411 character NULL 
#>  7 SEX                              411 character NULL 
#>  8 HEIGHT                           411 character NULL 
#>  9 WEIGHT                           411 character NULL 
#> 10 RACE                             411 character NULL 
#> 11 ETHNICITY                        411 character NULL 
#> 12 HISTORY_OTHER_MALIGNANCY         411 character NULL 
#> 13 HISTORY_NEOADJUVANT_TRTYN        411 character NULL 
#> 14 NONINVASIVE_BLADDER_HISTORY      411 character NULL 
#> 15 NONINVASIVE_BLADDER_CA_TX_TYPE   411 character NULL 
#> # … with 68 more rows
```
…
Additional exposure data on tumors of the same study participants comes
in the form of derived tumor aneuploidy scores as per Taylor, …,
Meyerson ([Cancer
Cell 2018;33:676–689](https://doi.org/10.1016/j.ccell.2018.03.007)).

Load the Excel file provided as their Supplementary Table 2, show
inventory, and select/rename variables:

``` r
taylor <- read_xlsx("../data/Taylor2018-TableS2-1-s2.0-S1535610818301119-mmc2.xlsx", 
                    skip = 1)  # skip the first line

varlist(taylor) %>%
  print(n = 20)
#> # A tibble: 69 x 4
#>    name                          n class     label
#>    <chr>                     <dbl> <chr>     <chr>
#>  1 Sample                    10522 character NULL 
#>  2 Type                      10522 character NULL 
#>  3 AneuploidyScore(AS)       10522 numeric   NULL 
#>  4 AS_del                    10522 numeric   NULL 
#>  5 AS_amp                    10522 numeric   NULL 
#>  6 Genome_doublings          10522 numeric   NULL 
#>  7 Leuk                      10033 numeric   NULL 
#>  8 Purity                    10033 numeric   NULL 
#>  9 Stroma                    10033 numeric   NULL 
#> 10 Stroma_notLeukocyte       10033 numeric   NULL 
#> 11 Stroma_notLeukocyte_Floor 10033 numeric   NULL 
#> 12 SilentMutationspeMb        9702 numeric   NULL 
#> 13 Non-silentMutationsperMb   9702 numeric   NULL 
#> 14 1p                         8705 numeric   NULL 
#> 15 1q                         9366 numeric   NULL 
#> 16 2p                         9563 numeric   NULL 
#> 17 2q                         9031 numeric   NULL 
#> 18 3p                         9181 numeric   NULL 
#> 19 3q                         9078 numeric   NULL 
#> 20 4p                         9782 numeric   NULL 
#> # … with 49 more rows
…
