Estimate Restricted Mean Time Lost (RMTL) and its Difference — estimate_rmtl • khsmisc
…
#> # A tibble: 2 × 5
#>   exposure estimate    se conf.low conf.high
#>   <chr>       <dbl> <dbl>    <dbl>     <dbl>
#> 1 Men         124.   10.4    103.      144. 
#> 2 Women        67.7  10.8     46.5      88.8
#> 
#> $rmtdiff
#> # A tibble: 2 × 6
#>   exposure estimate    se conf.low conf.high   p.value
#>   <chr>       <dbl> <dbl>    <dbl>     <dbl>     <dbl>
#> 1 Men           0    NA       NA        NA   NA       
#> 2 Women       -56.0  15.0    -85.4     -26.7  0.000183
#> 
#> $cif
#> # A tibble: 110 × 6
#>    exposure  time estimate      se  conf.low conf.high
#>    <chr>    <dbl>    <dbl>   <dbl>     <dbl>     <dbl>
#>  1 Men          0   0      NA      NA          NA     
#>  2 Women        0   0      NA      NA          NA     
#>  3 Men         11   0.0217  0.0124 -0.00259     0.0461
#>  4 Men         12   0.0290  0.0143  0.000995    0.0570
#>  5 Men         13   0.0435  0.0174  0.00945     0.0775
#>  6 Men         15   0.0507  0.0187  0.0141      0.0873
#>  7 Men         26   0.0580  0.0199  0.0190      0.0970
#>  8 Men         30   0.0652  0.0210  0.0240      0.106 
#>  9 Men         31   0.0725  0.0221  0.0292      0.116 
#> 10 Men         53   0.0870  0.0240  0.0399      0.134 
#> # ℹ 100 more rows
…
