Perform Sequential Exclusions — make_exclusions • khsmisc
…
    Examples

# Example data set
data(cancer, package = "survival")
cancer <- cancer %>% tibble::as_tibble()
cancer

#> # A tibble: 228 × 10
#>     inst  time status   age   sex ph.ecog ph.karno pat.karno meal.cal wt.loss
#>    <dbl> <dbl>  <dbl> <dbl> <dbl>   <dbl>    <dbl>     <dbl>    <dbl>   <dbl>
#>  1     3   306      2    74     1       1       90       100     1175      NA
#>  2     3   455      2    68     1       0       90        90     1225      15
#>  3     3  1010      1    56     1       0       90        90       NA      15
#>  4     5   210      2    57     1       1       90        60     1150      11
#>  5     1   883      2    60     1       0      100        90       NA       0
#>  6    12  1022      1    74     1       1       50        80      513       0
#>  7     7   310      2    68     2       2       70        60      384      10
#>  8    11   361      2    71     2       2       60        80      538       1
#>  9     1   218      2    53     1       1       70        80      825      16
#> 10     7   166      2    61     1       2       70        70      271      34
#> # … with 218 more rows
…
#> # A tibble: 3 × 7
#>   left                  right      filter  included    excluded   n_left n_right
#>   <chr>                 <chr>      <list>  <list>      <list>      <int>   <int>
#> 1 All patients          "Missing … <langu… <tibble [2… <tibble […    228       1
#> 2 Known ECOG            "Exclude … <langu… <tibble [2… <tibble […    227     137
#> 3 Analytical population ""         <lgl [… <tibble [9… <NULL>         90      NA

# Access study population after all exclusions
result %>%
  dplyr::pull(included) %>%
  dplyr::last()

#> # A tibble: 90 × 10
#>     inst  time status   age   sex ph.ecog ph.karno pat.karno meal.cal wt.loss
#>    <dbl> <dbl>  <dbl> <dbl> <dbl>   <dbl>    <dbl>     <dbl>    <dbl>   <dbl>
#>  1     7   310      2    68     2       2       70        60      384      10
#>  2    11   361      2    71     2       2       60        80      538       1
#>  3    16   654      2    68     2       2       70        70       NA      23
#>  4    11   728      2    68     2       1       90        90       NA       5
#>  5     1    61      2    56     2       2       60        60      238      10
#>  6     6    81      2    49     2       0      100        70     1175      -8
#>  7    12   520      2    70     2       1       90        80      825       6
#>  8    12   473      2    69     2       1       90        90     1025      -1
#>  9    16   107      2    60     2       2       50        60      925     -15
#> 10     1   122      2    62     2       2       50        50     1025      NA
#> # … with 80 more rows
…
