Tutorial: Ratios of continuous variables • khsmisc
…
cars <- mtcars %>%
  as_tibble(rownames = "make") %>%
  mutate(
    gear_cat = factor(
      gear, 
      levels = 3:5,
      labels = c("Three", "Four", "Five"))) %>%
  select(make, gear, gear_cat, mpg, hp, wt) %>%
  labelled::set_variable_labels(gear_cat = "Gears")

cars
#> # A tibble: 32 × 6
#>    make               gear gear_cat   mpg    hp    wt
#>    <chr>             <dbl> <fct>    <dbl> <dbl> <dbl>
#>  1 Mazda RX4             4 Four      21     110  2.62
#>  2 Mazda RX4 Wag         4 Four      21     110  2.88
#>  3 Datsun 710            4 Four      22.8    93  2.32
#>  4 Hornet 4 Drive        3 Three     21.4   110  3.22
#>  5 Hornet Sportabout     3 Three     18.7   175  3.44
#>  6 Valiant               3 Three     18.1   105  3.46
#>  7 Duster 360            3 Three     14.3   245  3.57
#>  8 Merc 240D             4 Four      24.4    62  3.19
#>  9 Merc 230              4 Four      22.8    95  3.15
#> 10 Merc 280              4 Four      19.2   123  3.44
#> # … with 22 more rows
…
