Sample analysis workflow using `khsmisc` and TCGA `BLCA` • khsmisc
…
An inventory of the dataset:

varlist(clinical) %>%
  print(n = 15)  # show the first 15 lines of output
#> # A tibble: 83 × 4
#>    name                               n class     label
#>    <chr>                          <dbl> <chr>     <chr>
#>  1 OTHER_PATIENT_ID                 411 character NULL 
#>  2 PATIENT_ID                       411 character NULL 
#>  3 FORM_COMPLETION_DATE             411 character NULL 
#>  4 PROSPECTIVE_COLLECTION           411 character NULL 
#>  5 RETROSPECTIVE_COLLECTION         411 character NULL 
#>  6 DAYS_TO_BIRTH                    411 character NULL 
#>  7 SEX                              411 character NULL 
#>  8 HEIGHT                           411 character NULL 
#>  9 WEIGHT                           411 character NULL 
#> 10 RACE                             411 character NULL 
#> 11 ETHNICITY                        411 character NULL 
#> 12 HISTORY_OTHER_MALIGNANCY         411 character NULL 
#> 13 HISTORY_NEOADJUVANT_TRTYN        411 character NULL 
#> 14 NONINVASIVE_BLADDER_HISTORY      411 character NULL 
#> 15 NONINVASIVE_BLADDER_CA_TX_TYPE   411 character NULL 
#> # … with 68 more rows
…
